<svg width="27" height="28" viewBox="0 0 27 28" fill="none" xmlns="http://www.w3.org/2000/svg">
<g clip-path="url(#clip0)">
<path d="M13.5 0.0759277C6.04415 0.0759277 0 6.12007 0 13.5759C0 21.0317 6.04415 27.0759 13.5 27.0759C20.9558 27.0759 26.9999 21.0317 26.9999 13.5759C26.992 6.12341 20.9525 0.0838944 13.5 0.0759277ZM13.5 25.1473C7.10925 25.1473 1.92855 19.9666 1.92855 13.5759C1.92855 7.18518 7.10925 2.00448 13.5 2.00448C19.8907 2.00448 25.0714 7.18518 25.0714 13.5759C25.0645 19.9638 19.8879 25.1404 13.5 25.1473Z" fill="#2EA452"/>
<path d="M20.9078 8.0727C20.5341 7.71177 19.9417 7.71177 19.5681 8.0727L10.607 17.0338L7.43154 13.8583C7.06157 13.4753 6.45108 13.4647 6.06806 13.8347C5.68498 14.2046 5.67441 14.8151 6.04438 15.1982C6.05212 15.2062 6.06003 15.2141 6.06806 15.2218L9.92522 19.079C10.3017 19.4555 10.9122 19.4555 11.2887 19.079L20.9316 9.43612C21.3015 9.0531 21.2909 8.44267 20.9078 8.0727Z" fill="#2EA452"/>
</g>
<defs>
<clipPath id="clip0">
<rect width="27" height="27" fill="white" transform="translate(0 0.0759277)"/>
</clipPath>
</defs>
</svg>
