<svg width="50" height="50" viewBox="0 0 50 50" fill="none" xmlns="http://www.w3.org/2000/svg">
<path d="M49.9695 7.19687C50.187 6.18451 49.1945 5.33089 48.2263 5.70033L6.22948 21.7323C5.72404 21.9253 5.38972 22.4097 5.38867 22.9507C5.38763 23.4918 5.72003 23.9776 6.22478 24.1725L18.0225 28.7289V43.0804C18.0225 43.6858 18.4382 44.2119 19.0272 44.3519C19.6123 44.4911 20.2223 44.2127 20.4966 43.6686L25.376 33.9859L37.2836 42.823C38.0079 43.3606 39.049 43.0187 39.3126 42.1548C50.4303 5.7032 49.9497 7.28845 49.9695 7.19687V7.19687ZM39.6026 11.7902L19.1442 26.36L10.3416 22.9604L39.6026 11.7902ZM20.6364 28.5063L38.4692 15.8065C23.1243 31.9944 23.9257 31.1424 23.8588 31.2325C23.7594 31.3662 24.0318 30.8449 20.6364 37.5827V28.5063ZM37.353 39.6194L26.8716 31.8408L45.8234 11.8477L37.353 39.6194Z" fill="#DB834E"/>
</svg>
