<svg width="16" height="17" viewBox="0 0 16 17" fill="none" xmlns="http://www.w3.org/2000/svg">
<path fill-rule="evenodd" clip-rule="evenodd" d="M9.30084 4.56988L12.5195 8.56988C12.7188 8.81721 12.7155 9.17054 12.5122 9.41454L9.17884 13.4145C9.04684 13.5725 8.85751 13.6545 8.66617 13.6545C8.51617 13.6545 8.36484 13.6039 8.24017 13.4999C7.95684 13.2645 7.91884 12.8439 8.15484 12.5612L11.1388 8.98054L8.26151 5.40588C8.03084 5.11921 8.07617 4.69921 8.36351 4.46854C8.65017 4.23721 9.06951 4.28321 9.30084 4.56988ZM3.69674 4.46868C3.98341 4.23802 4.40274 4.28335 4.63407 4.57002L7.85274 8.57002C8.05141 8.81735 8.04874 9.17068 7.84541 9.41468L4.51207 13.4147C4.38007 13.5727 4.19074 13.6547 3.99941 13.6547C3.84941 13.6547 3.69808 13.604 3.57341 13.5C3.29008 13.2647 3.25208 12.844 3.48808 12.5613L6.47141 8.98068L3.59474 5.40602C3.36408 5.11935 3.41008 4.69935 3.69674 4.46868Z" fill="#9E9E9E"/>
</svg>
