<svg width="107" height="106" viewBox="0 0 107 106" fill="none" xmlns="http://www.w3.org/2000/svg">
<path d="M101.49 77.8485L99.9142 71.3713C99.9056 71.3367 99.8961 71.3022 99.8856 71.2678C97.6752 64.1954 91.0164 59.625 82.9215 59.625H82.6248L77.3548 46.9775C75.8021 43.2497 72.3631 40.6423 68.2705 39.9405V34.7812C68.2705 34.342 68.096 33.9207 67.7854 33.6101C67.4748 33.2995 67.0535 33.125 66.6143 33.125H61.6455V21.5312C61.644 20.2139 61.12 18.951 60.1885 18.0195C59.257 17.088 57.9941 16.564 56.6768 16.5625H53.3643V14.9062C53.3628 13.5889 52.8388 12.3259 51.9073 11.3944C50.9758 10.4629 49.7128 9.93898 48.3955 9.9375H45.083C43.7657 9.93898 42.5027 10.4629 41.5712 11.3944C40.6397 12.3259 40.1157 13.5889 40.1143 14.9062V16.5625H38.458V14.2939C38.4567 13.1389 37.9974 12.0315 37.1807 11.2148C36.364 10.3981 35.2566 9.93876 34.1017 9.9375H26.2519C25.0969 9.93876 23.9895 10.3981 23.1728 11.2148C22.3561 12.0315 21.8968 13.1389 21.8955 14.2939V33.125H16.9268C16.4875 33.125 16.0662 33.2995 15.7556 33.6101C15.445 33.9207 15.2705 34.342 15.2705 34.7812V39.75C12.1967 39.7535 9.2498 40.976 7.0763 43.1495C4.9028 45.323 3.68021 48.27 3.67676 51.3438V86.125C3.67676 86.5643 3.85126 86.9855 4.16186 87.2962C4.47247 87.6068 4.89374 87.7812 5.33301 87.7812H18.2638C19.1347 89.2918 20.3882 90.5463 21.898 91.4185C23.4077 92.2907 25.1206 92.75 26.8643 92.75C28.6079 92.75 30.3208 92.2907 31.8306 91.4185C33.3403 90.5463 34.5938 89.2918 35.4648 87.7812H67.9513C68.8222 89.2918 70.0757 90.5463 71.5854 91.4185C73.0952 92.2907 74.8081 92.75 76.5518 92.75C78.2954 92.75 80.0083 92.2907 81.5181 91.4185C83.0278 90.5463 84.2813 89.2918 85.1523 87.7812H101.396C101.835 87.7812 102.256 87.6068 102.567 87.2962C102.877 86.9855 103.052 86.5643 103.052 86.125V79.5C103.052 79.0773 102.89 78.6707 102.599 78.3637C102.309 78.0566 101.912 77.8723 101.49 77.8485ZM98.0795 77.8438H93.1143V74.5312H97.2737L98.0795 77.8438ZM61.6455 38.0542V36.4375H64.958V39.75H61.3472C61.545 39.2065 61.6459 38.6326 61.6455 38.0542ZM66.0333 43.0625C69.6831 43.0625 73.0041 45.1477 74.2972 48.2515L79.0361 59.625H51.708V43.0625H66.0333ZM43.4268 14.9062C43.4272 14.4671 43.6019 14.0461 43.9124 13.7356C44.2229 13.4251 44.6439 13.2505 45.083 13.25H48.3955C48.8346 13.2505 49.2556 13.4251 49.5661 13.7356C49.8766 14.0461 50.0513 14.4671 50.0518 14.9062V16.5625H43.4268V14.9062ZM38.458 19.875H56.6768C57.1159 19.8755 57.5369 20.0501 57.8474 20.3607C58.1579 20.6712 58.3325 21.0921 58.333 21.5312V33.125H38.458V19.875ZM38.458 38.6666V36.4375H58.333V38.0542C58.3325 38.4933 58.1579 38.9143 57.8474 39.2248C57.5369 39.5353 57.1159 39.71 56.6768 39.7105V39.75H38.3162C38.4089 39.3963 38.4566 39.0323 38.458 38.6666ZM48.3955 43.0625V59.625H28.5205V43.0625H48.3955ZM31.833 13.25H34.1017C34.3784 13.2503 34.6437 13.3604 34.8394 13.5561C35.0351 13.7518 35.1452 14.0171 35.1455 14.2939V33.125H31.833V13.25ZM31.833 36.4375H35.1455V38.6666C35.1452 38.9434 35.0351 39.2087 34.8394 39.4044C34.6437 39.6 34.3784 39.7101 34.1017 39.7105V39.75H31.833V36.4375ZM25.208 14.2939C25.2083 14.0171 25.3184 13.7518 25.5141 13.5561C25.7098 13.3604 25.9751 13.2503 26.2519 13.25H28.5205V33.125H25.208V14.2939ZM25.208 36.4375H28.5205V39.75H26.2519V39.7105C25.9751 39.7101 25.7098 39.6 25.5141 39.4044C25.3184 39.2087 25.2083 38.9434 25.208 38.6666V36.4375ZM18.583 36.4375H21.8955V38.6666C21.897 39.0323 21.9446 39.3963 22.0373 39.75H18.583V36.4375ZM6.98926 51.3438C6.99172 49.1482 7.865 47.0432 9.4175 45.4907C10.97 43.9382 13.0749 43.065 15.2705 43.0625H25.208V59.625H6.98926V51.3438ZM6.98926 74.5312H10.3018V77.8438H6.98926V74.5312ZM17.0673 84.4688H6.98926V81.1562H17.0673C16.8799 82.2525 16.8799 83.3725 17.0673 84.4688ZM26.8643 89.4375C25.554 89.4375 24.2731 89.049 23.1836 88.321C22.0941 87.593 21.245 86.5583 20.7436 85.3478C20.2421 84.1372 20.1109 82.8052 20.3666 81.52C20.6222 80.2349 21.2532 79.0544 22.1797 78.1279C23.1062 77.2014 24.2867 76.5704 25.5718 76.3148C26.8569 76.0592 28.189 76.1904 29.3995 76.6918C30.6101 77.1932 31.6448 78.0424 32.3727 79.1318C33.1007 80.2213 33.4893 81.5022 33.4893 82.8125C33.4873 84.569 32.7887 86.2529 31.5467 87.4949C30.3047 88.7369 28.6207 89.4355 26.8643 89.4375ZM66.7548 84.4688H36.6612C36.8486 83.3725 36.8486 82.2525 36.6612 81.1562H66.7548C66.5674 82.2525 66.5674 83.3725 66.7548 84.4688ZM76.5518 89.4375C75.2415 89.4375 73.9606 89.049 72.8711 88.321C71.7816 87.593 70.9325 86.5583 70.4311 85.3478C69.9296 84.1372 69.7984 82.8052 70.0541 81.52C70.3097 80.2349 70.9407 79.0544 71.8672 78.1279C72.7937 77.2014 73.9742 76.5704 75.2593 76.3148C76.5444 76.0592 77.8765 76.1904 79.087 76.6918C80.2976 77.1932 81.3323 78.0424 82.0602 79.1318C82.7882 80.2213 83.1768 81.5022 83.1768 82.8125C83.1748 84.569 82.4762 86.2529 81.2342 87.4949C79.9922 88.7369 78.3082 89.4355 76.5518 89.4375ZM76.5518 72.875C74.8084 72.8763 73.096 73.336 71.5864 74.2082C70.0769 75.0803 68.8232 76.3341 67.9513 77.8438H35.4648C34.5938 76.3332 33.3403 75.0787 31.8306 74.2065C30.3208 73.3343 28.6079 72.875 26.8643 72.875C25.1206 72.875 23.4077 73.3343 21.898 74.2065C20.3882 75.0787 19.1347 76.3332 18.2638 77.8438H13.6143V72.875C13.6143 72.4357 13.4398 72.0145 13.1292 71.7039C12.8185 71.3932 12.3973 71.2188 11.958 71.2188H6.98926V62.9375H82.9215C89.2243 62.9375 94.2685 66.0821 96.3512 71.2188H91.458C91.0187 71.2188 90.5975 71.3932 90.2869 71.7039C89.9763 72.0145 89.8018 72.4357 89.8018 72.875V77.8438H85.1523C84.2803 76.3341 83.0267 75.0803 81.5171 74.2082C80.0075 73.336 78.2951 72.8763 76.5518 72.875ZM99.7393 84.4688H86.3487C86.5361 83.3725 86.5361 82.2525 86.3487 81.1562H99.7393V84.4688Z" fill="white"/>
<path d="M56.6768 66.25H53.3643C52.925 66.25 52.5037 66.4245 52.1931 66.7351C51.8825 67.0457 51.708 67.467 51.708 67.9062C51.708 68.3455 51.8825 68.7668 52.1931 69.0774C52.5037 69.388 52.925 69.5625 53.3643 69.5625H56.6768C57.116 69.5625 57.5373 69.388 57.8479 69.0774C58.1585 68.7668 58.333 68.3455 58.333 67.9062C58.333 67.467 58.1585 67.0457 57.8479 66.7351C57.5373 66.4245 57.116 66.25 56.6768 66.25Z" fill="white"/>
<path d="M33.4893 66.25H30.1768C29.7375 66.25 29.3162 66.4245 29.0056 66.7351C28.695 67.0457 28.5205 67.467 28.5205 67.9062C28.5205 68.3455 28.695 68.7668 29.0056 69.0774C29.3162 69.388 29.7375 69.5625 30.1768 69.5625H33.4893C33.9285 69.5625 34.3498 69.388 34.6604 69.0774C34.971 68.7668 35.1455 68.3455 35.1455 67.9062C35.1455 67.467 34.971 67.0457 34.6604 66.7351C34.3498 66.4245 33.9285 66.25 33.4893 66.25Z" fill="white"/>
<path d="M26.8643 86.125C28.6937 86.125 30.1768 84.6419 30.1768 82.8125C30.1768 80.9831 28.6937 79.5 26.8643 79.5C25.0348 79.5 23.5518 80.9831 23.5518 82.8125C23.5518 84.6419 25.0348 86.125 26.8643 86.125Z" fill="white"/>
<path d="M76.5518 86.125C78.3812 86.125 79.8643 84.6419 79.8643 82.8125C79.8643 80.9831 78.3812 79.5 76.5518 79.5C74.7223 79.5 73.2393 80.9831 73.2393 82.8125C73.2393 84.6419 74.7223 86.125 76.5518 86.125Z" fill="white"/>
</svg>
