<svg width="44" height="45" viewBox="0 0 44 45" fill="none" xmlns="http://www.w3.org/2000/svg">
<path fill-rule="evenodd" clip-rule="evenodd" d="M22 20.6524C20.4838 20.6524 19.25 19.4186 19.25 17.9024C19.25 16.3862 20.4838 15.1524 22 15.1524C23.5162 15.1524 24.75 16.3862 24.75 17.9024C24.75 19.4186 23.5162 20.6524 22 20.6524ZM22 11.4857C18.4617 11.4857 15.5833 14.3641 15.5833 17.9024C15.5833 21.4407 18.4617 24.3191 22 24.3191C25.5383 24.3191 28.4167 21.4407 28.4167 17.9024C28.4167 14.3641 25.5383 11.4857 22 11.4857ZM22 36.5043C18.9292 33.6003 11 25.4475 11 18.677C11 12.6911 15.9335 7.81998 22 7.81998C28.0665 7.81998 33 12.6911 33 18.677C33 25.4475 25.0708 33.6003 22 36.5043ZM22 4.15332C13.9132 4.15332 7.33333 10.6672 7.33333 18.677C7.33333 28.7145 20.2565 39.9052 20.8065 40.3763C21.1512 40.6715 21.5747 40.82 22 40.82C22.4253 40.82 22.8488 40.6715 23.1935 40.3763C23.7435 39.9052 36.6667 28.7145 36.6667 18.677C36.6667 10.6672 30.0868 4.15332 22 4.15332Z" fill="#9E9E9E" fill-opacity="0.5"/>
</svg>
